{
  "tokens": {
    "global": {
      "border": {
        "radius": {
          "4": {
            "value": "4",
            "type": "borderRadius"
          },
          "12": {
            "value": "12",
            "type": "borderRadius",
            "description": "Modal"
          }
        },
        "width": {
          "1": {
            "value": "1",
            "type": "borderWidth"
          }
        }
      },
      "font": {
        "size": {
          "12": {
            "value": "12",
            "type": "fontSizes"
          },
          "20": {
            "value": "20",
            "type": "fontSizes"
          }
        },
        "family": {
          "Inter": {
            "value": "Inter",
            "type": "fontFamilies"
          }
        },
        "weight": {
          "regular": {
            "value": "Regular",
            "type": "fontWeights"
          },
          "medium": {
            "value": "Medium",
            "type": "fontWeights"
          },
          "semi-bold": {
            "value": "Semi Bold",
            "type": "fontWeights"
          },
          "bold": {
            "value": "Bold",
            "type": "fontWeights"
          }
        },
        "line-height": {
          "27": {
            "value": "27",
            "type": "lineHeights",
            "description": "Font-size: 18px (Body/Header)"
          },
          "unset": {
            "value": "unset",
            "type": "lineHeights"
          }
        },
        "letter-spacing": {
          "-04": {
            "value": "-0.04%",
            "type": "letterSpacing",
            "description": "Labels"
          },
          "-1": {
            "value": "-1%",
            "type": "letterSpacing"
          }
        },
        "text-case": {
          "none": {
            "value": "none",
            "type": "textCase"
          },
          "uppercase": {
            "value": "uppercase",
            "type": "textCase"
          }
        },
        "text-decoration": {
          "none": {
            "value": "none",
            "type": "textDecoration",
            "description": "112"
          }
        }
      },
      "color": {
        "grey": {
          "1": {
            "value": "#191A1B",
            "type": "color",
            "description": "\"global\""
          },
          "2": {
            "value": "#999999",
            "type": "color",
            "description": "\"global\""
          },
          "3": {
            "value": "#F7F7F7",
            "type": "color",
            "description": "\"global\""
          }
        },
        "red": {
          "16": {
            "value": "#F7654A",
            "type": "color",
            "description": "\"global\""
          }
        },
        "white": {
          "1": {
            "value": "#FFFFFF",
            "type": "color",
            "description": "\"global\""
          }
        },
        "blue": {
          "1": {
            "value": "#0E86D4",
            "type": "color",
            "description": "\"global\""
          }
        }
      },
      "space": {
        "4": {
          "value": "4",
          "type": "spacing"
        },
        "24": {
          "value": "24",
          "type": "spacing"
        }
      },
      "size": {
        "16": {
          "value": "16",
          "type": "sizing"
        },
        "20": {
          "value": "20",
          "type": "sizing"
        },
        "24": {
          "value": "24",
          "type": "sizing"
        }
      },
      "opacity": {
        "25": {
          "value": "0.25",
          "type": "opacity"
        }
      }
    },
    "Dark": {
      "color": {
        "bg": {
          "1": {
            "value": "{global.color.grey.1}",
            "type": "color",
            "description": "Bg of main section. Dark theme."
          },
          "2": {
            "type": "color",
            "value": "{global.color.grey.3}",
            "description": "Bg of small section with counts. Dark theme."
          }
        },
        "text": {
          "1": {
            "value": "{global.color.white.1}",
            "type": "color",
            "description": "Main color of text. Dark theme."
          },
          "2": {
            "value": "{global.color.grey.2}",
            "type": "color",
            "description": "Color of description text. Dark theme."
          }
        }
      }
    },
    "Mobile": {
      "font": {
        "title": {
          "14": {
            "value": {
              "fontFamily": "{font.family.Inter}",
              "fontWeight": "{font.weight.semi-bold}",
              "lineHeight": "{font.line-height.unset}",
              "fontSize": "{font.size.14}",
              "paragraphSpacing": "{font.paragraph-spacing.0}",
              "textDecoration": "{font.text-decoration.none}",
              "textCase": "{font.text-case.none}",
              "letterSpacing": "{font.letter-spacing.-009}"
            },
            "type": "typography",
            "description": "Section titles (tap bar)"
          },
          "17": {
            "value": {
              "fontFamily": "{font.family.Inter}",
              "fontWeight": "{font.weight.semi-bold}",
              "lineHeight": "{font.line-height.unset}",
              "fontSize": "{font.size.17}",
              "paragraphSpacing": "{font.paragraph-spacing.0}",
              "textDecoration": "{font.text-decoration.none}",
              "textCase": "{font.text-case.none}",
              "letterSpacing": "{font.letter-spacing.-1}"
            },
            "type": "typography",
            "description": "Section titles (tap bar)"
          }
        },
        "heading": {
          "15": {
            "value": {
              "fontFamily": "{font.family.Inter}",
              "fontWeight": "{font.weight.semi-bold}",
              "lineHeight": "{font.line-height.130%}",
              "fontSize": "{font.size.15}",
              "paragraphSpacing": "{font.paragraph-spacing.0}",
              "textDecoration": "{font.text-decoration.none}",
              "textCase": "{font.text-case.none}",
              "letterSpacing": "{font.letter-spacing.-009}"
            },
            "type": "typography",
            "description": "User name"
          }
        },
        "body": {
          "13": {
            "value": {
              "fontFamily": "{font.family.Inter}",
              "fontWeight": "{font.weight.regular}",
              "lineHeight": "{font.line-height.27}",
              "fontSize": "{font.size.13}",
              "paragraphSpacing": "{font.paragraph-spacing.0}",
              "textDecoration": "{font.text-decoration.none}",
              "textCase": "{font.text-case.none}",
              "letterSpacing": "{font.letter-spacing.-009}"
            },
            "type": "typography",
            "description": "body text"
          },
          "15": {
            "value": {
              "fontFamily": "{font.family.Inter}",
              "fontWeight": "{font.weight.regular}",
              "lineHeight": "{font.line-height.27}",
              "fontSize": "{font.size.15}",
              "paragraphSpacing": "{font.paragraph-spacing.0}",
              "textDecoration": "{font.text-decoration.none}",
              "textCase": "{font.text-case.none}",
              "letterSpacing": "{font.letter-spacing.-009}"
            },
            "type": "typography",
            "description": "body text"
          }
        },
        "label": {
          "13": {
            "value": {
              "fontFamily": "{font.family.Inter}",
              "fontWeight": "{font.weight.medium}",
              "lineHeight": "{font.line-height.unset}",
              "fontSize": "{font.size.13}",
              "letterSpacing": "{font.letter-spacing.-009}",
              "paragraphSpacing": "{font.paragraph-spacing.0}",
              "textDecoration": "{font.text-decoration.none}",
              "textCase": "{font.text-case.none}"
            },
            "type": "typography",
            "description": "Mobile"
          },
          "14": {
            "value": {
              "fontFamily": "{font.family.Inter}",
              "fontWeight": "{font.weight.medium}",
              "lineHeight": "{font.line-height.unset}",
              "fontSize": "{font.size.14}",
              "letterSpacing": "{font.letter-spacing.-009}",
              "paragraphSpacing": "{font.paragraph-spacing.0}",
              "textDecoration": "{font.text-decoration.none}",
              "textCase": "{font.text-case.none}"
            },
            "type": "typography",
            "description": "Mobile"
          },
          "15": {
            "value": {
              "fontFamily": "{font.family.Inter}",
              "fontWeight": "{font.weight.medium}",
              "lineHeight": "{font.line-height.unset}",
              "fontSize": "{font.size.15}",
              "letterSpacing": "{font.letter-spacing.-009}",
              "paragraphSpacing": "{font.paragraph-spacing.0}",
              "textDecoration": "{font.text-decoration.none}",
              "textCase": "{font.text-case.none}"
            },
            "type": "typography",
            "description": "Mobile"
          }
        }
      }
    },
    "$metadata": {
      "tokenSetOrder": {
        "0": {
          "value": "global",
          "type": "other"
        },
        "1": {
          "value": "Dark",
          "type": "other"
        },
        "2": {
          "value": "Light",
          "type": "other"
        },
        "3": {
          "value": "Mobile",
          "type": "other"
        }
      }
    },
    "Light": {
      "color": {
        "bg": {
          "1": {
            "value": "{global.color.white.1}",
            "type": "color",
            "description": "Bg of main section. Light theme."
          },
          "2": {
            "value": "{global.color.grey.1}",
            "type": "color",
            "description": "Bg of small section with counts. Light theme."
          }
        },
        "text": {
          "1": {
            "value": "{global.color.grey.1}",
            "type": "color",
            "description": "Main color of text. Light theme."
          },
          "2": {
            "value": "{global.color.grey.2}",
            "type": "color",
            "description": "Color of description text. Light theme."
          }
        }
      }
    }
  },
  "$themes": [],
  "$metadata": {
    "tokenSetOrder": [
      "tokens"
    ]
  }
}